{"results":[{"vote_count":638,"id":297802,"video":false,"vote_average":7,"title":"Aquaman","popularity":616.683,"poster_path":"\/i2dF9UxOeb77CAJrOflj0RpqJRF.jpg","original_language":"en","original_title":"Aquaman","genre_ids":[28,14,878,12],"backdrop_path":"\/5A2bMlLfJrAfX9bqAibOL2gCruF.jpg","adult":false,"overview":"Arthur Curry learns that he is the heir to the underwater kingdom of Atlantis, and must step forward to lead his people and be a hero to the world.","release_date":"2018-12-07"},{"vote_count":122,"id":424783,"video":false,"vote_average":6.6,"title":"Bumblebee","popularity":354.345,"poster_path":"\/sG6n4ei1F0kVQtTs3fAjDghngpa.jpg","original_language":"en","original_title":"Bumblebee","genre_ids":[28,12,878],"backdrop_path":"\/wtZj5nn6hVwgakPdg6y6gm3eFXU.jpg","adult":false,"overview":"On the run in the year 1987, Bumblebee finds refuge in a junkyard in a small Californian beach town. Charlie, on the cusp of turning 18 and trying to find her place in the world, discovers Bumblebee, battle-scarred and broken.  When Charlie revives him, she quickly learns this is no ordinary yellow VW bug.","release_date":"2018-12-15"},{"vote_count":258,"id":480530,"video":false,"vote_average":6.6,"title":"Creed II","popularity":203.791,"poster_path":"\/v3QyboWRoA4O9RbcsqH8tJMe8EB.jpg","original_language":"en","original_title":"Creed II","genre_ids":[18,28],"backdrop_path":"\/8yqLPNwNCtpOPc3XkOlkSMnghzw.jpg","adult":false,"overview":"Follows Adonis Creed's life inside and outside of the ring as he deals with new found fame, issues with his family, and his continuing quest to become a champion.","release_date":"2018-11-20"},{"vote_count":38,"id":503314,"video":false,"vote_average":7.1,"title":"Dragon Ball Super: Broly","popularity":186.75,"poster_path":"\/518jdIQHCZmYqIcNCaqbZuDRheV.jpg","original_language":"ja","original_title":"ドラゴンボール超（スーパー） ブロリー","genre_ids":[28,16,878],"backdrop_path":"\/6OTRuxpwUUGbmCX3MKP25dOmo59.jpg","adult":false,"overview":"Earth is peaceful following the Tournament of Power. Realizing that the universes still hold many more strong people yet to see, Goku spends all his days training to reach even greater heights. Then one day, Goku and Vegeta are faced by a Saiyan called 'Broly' who they've never seen before. The Saiyans were supposed to have been almost completely wiped out in the destruction of Planet Vegeta, so what's this one doing on Earth? This encounter between the three Saiyans who have followed completely different destinies turns into a stupendous battle, with even Frieza (back from Hell) getting caught up in the mix.","release_date":"2018-12-14"},{"vote_count":284,"id":428078,"video":false,"vote_average":6.2,"title":"Mortal Engines","popularity":133.319,"poster_path":"\/uXJVpPXxZO4L8Rz3IG1Y8XvZJcg.jpg","original_language":"en","original_title":"Mortal Engines","genre_ids":[878,28,12],"backdrop_path":"\/rxYG6Sj95as9rv9wKIHUx6ATWd3.jpg","adult":false,"overview":"Set in a world many thousands of years in the future. Earth’s cities now roam the globe on huge wheels, devouring each other in a struggle for ever diminishing resources. On one of these massive Traction Cities, Tom Natsworthy has an unexpected encounter with a mysterious young woman from the Outlands who will change the course of his life forever.","release_date":"2018-12-06"},{"vote_count":298,"id":375588,"video":false,"vote_average":6,"title":"Robin Hood","popularity":82.259,"poster_path":"\/AiRfixFcfTkNbn2A73qVJPlpkUo.jpg","original_language":"en","original_title":"Robin Hood","genre_ids":[12,28],"backdrop_path":"\/AuA50D7T7S7OEVcGo0ZKaMhERn0.jpg","adult":false,"overview":"A war-hardened Crusader and his Moorish commander mount an audacious revolt against the corrupt English crown.","release_date":"2018-11-20"},{"vote_count":118,"id":398173,"video":false,"vote_average":7.2,"title":"The House That Jack Built","popularity":80.44,"poster_path":"\/9gasQE0li1eMnFF1oKPSszmJD30.jpg","original_language":"en","original_title":"The House That Jack Built","genre_ids":[18,27,80],"backdrop_path":"\/itdm9wqCo03NZ3CGSz5P7eiMo68.jpg","adult":false,"overview":"Failed architect, engineer and vicious murderer Jack tells Verge the details of some of his most elaborately orchestrated crimes, each of them a towering piece of art that defines his life's work as a serial killer for twelve years.","release_date":"2018-10-08"},{"vote_count":289,"id":404368,"video":false,"vote_average":7.4,"title":"Ralph Breaks the Internet","popularity":74.523,"poster_path":"\/m110vLaDDOCca4hfOcS5mK5cDke.jpg","original_language":"en","original_title":"Ralph Breaks the Internet","genre_ids":[10751,16,35],"backdrop_path":"\/ivhK1NjnFji6lD5dkAThSzd3Mgq.jpg","adult":false,"overview":"Taking place six years following the events of the first film, the story will center on Ralph's adventures in the Internet data space when a Wi-Fi router gets plugged into the arcade as he must find a replacement part to fix Sugar Rush.","release_date":"2018-11-20"},{"vote_count":58,"id":438808,"video":false,"vote_average":5.6,"title":"White Boy Rick","popularity":62.302,"poster_path":"\/l15r2aLqdifXM9GFsJLkOq5Y8SI.jpg","original_language":"en","original_title":"White Boy Rick","genre_ids":[18,80],"backdrop_path":"\/iphqiuA8HJg15Haw4Hkk2iyhWRo.jpg","adult":false,"overview":"The story of teenager, Richard Wershe Jr., who became an undercover informant for the police during the 1980s and was ultimately arrested for drug-trafficking and sentenced to life in prison.","release_date":"2018-09-14"},{"vote_count":65,"id":400650,"video":false,"vote_average":7.4,"title":"Mary Poppins Returns","popularity":59.581,"poster_path":"\/uTVGku4LibMGyKgQvjBtv3OYfAX.jpg","original_language":"en","original_title":"Mary Poppins Returns","genre_ids":[14,10402,10751],"backdrop_path":"\/3pvIMjJps4uJr5NOmolY0MXvTYD.jpg","adult":false,"overview":"In Depression-era London, a now-grown Jane and Michael Banks, along with Michael's three children, are visited by the enigmatic Mary Poppins following a personal loss. Through her unique magical skills, and with the aid of her friend Jack, she helps the family rediscover the joy and wonder missing in their lives.","release_date":"2018-12-19"},{"vote_count":0,"id":505954,"video":false,"vote_average":0,"title":"T-34","popularity":35.459,"poster_path":"\/wNJF8R5QE6nBT7DQoKk8t6YD1MM.jpg","original_language":"ru","original_title":"Т-34","genre_ids":[10752,18,12],"backdrop_path":"\/vDx8XxfYjkn573bCFGF6SkdM33Q.jpg","adult":false,"overview":"1941. WWii. the second lieutenant Nikolai ivushkin, commander of a t-34, engages in an unequal battle against the tank ace Klaus Jager in a battle near moscow. His mission is more of a suicide - to destroy a dozen german tanks, all by himself. that said, luck does favour the bold. He wins the battle, barely survives, but loses his tank and lands himself in captivity for three long years... there was little to no chance for ivushkin and Jager to meet again, but the war knows how to throw a curve ball.in the spring of 1944, the Wehrmacht commands Jager to take charge of the ohrdruf  re range and turn it into a training center for elite german armored forces, using the latest t-34 as a running target. this is how Jager and ivushkin cross paths again. Jager o ers ivushkin to become the commander of a legendary tank and pick his crew from fellow camp prisoners. Nothing goes according to plan, though, when ivushkin uses exercises for a daring and carefully planned escape.","release_date":"2018-12-27"},{"vote_count":7,"id":512412,"video":false,"vote_average":6.1,"title":"Backtrace","popularity":32.798,"poster_path":"\/3m2SRfLsdCnbn4n4iQZV7sEXGNX.jpg","original_language":"en","original_title":"Backtrace","genre_ids":[80,18],"backdrop_path":"\/arYmRZmKN1D9j6NPclq021J5aYP.jpg","adult":false,"overview":"The lone surviving thief of a violent armored car robbery is sprung from a high security facility and administered an experimental drug.","release_date":"2018-12-14"},{"vote_count":35,"id":476292,"video":false,"vote_average":6.4,"title":"Maquia: When the Promised Flower Blooms","popularity":26.524,"poster_path":"\/5zWZwQsMHB2LstADNKUc4Ql8SQu.jpg","original_language":"ja","original_title":"さよならの朝に約束の花をかざろう","genre_ids":[16,18,14],"backdrop_path":"\/pSsHFCwM5KMoRCc8X8wjpUDrlvr.jpg","adult":false,"overview":"A story of encounters and partings interwoven between people; this is a human drama with feelings that touch one's heart gradually, which everyone has experienced at least once.","release_date":"2018-02-24"},{"vote_count":13,"id":460071,"video":false,"vote_average":5,"title":"Lizzie","popularity":25.302,"poster_path":"\/z2iuBcwznen3kC9z4LeOzBSz1BB.jpg","original_language":"en","original_title":"Lizzie","genre_ids":[80,18,53],"backdrop_path":"\/uq2ELjEQM02GhWJY75MQHgaiCJB.jpg","adult":false,"overview":"Massachusetts, 1892. An unmarried woman of 32 and a social outcast, Lizzie lives a claustrophobic life under her father's cold and domineering control. When Bridget Sullivan, a young maid, comes to work for the family, Lizzie finds a sympathetic, kindred spirit, and a secret intimacy soon blossoms into a wicked plan.","release_date":"2018-09-14"},{"vote_count":2,"id":351044,"video":false,"vote_average":10,"title":"Welcome to Marwen","popularity":25.227,"poster_path":"\/yWY4WRcjvOtGiGvLEPDhOCZvBn.jpg","original_language":"en","original_title":"Welcome to Marwen","genre_ids":[18,35,14,16],"backdrop_path":"\/wGqWL3yBnzAB1sTfGop3nNEhXMK.jpg","adult":false,"overview":"When a devastating attack shatters Mark Hogancamp and wipes away all memories, no one expected recovery. Putting together pieces from his old and new life, Mark meticulously creates a wondrous town named Marwen where he can heal and be heroic. As he builds an astonishing art installation — a testament to the most powerful women he knows — through his fantasy world, he draws strength to triumph in the real one.","release_date":"2018-12-21"},{"vote_count":121,"id":396461,"video":false,"vote_average":6.4,"title":"Under the Silver Lake","popularity":21.177,"poster_path":"\/cJ9aKlEgTLYtpYjNqin06YqJRUl.jpg","original_language":"en","original_title":"Under the Silver Lake","genre_ids":[80,53,35,18,9648],"backdrop_path":"\/lPTXeEGVtHFBWSe7NXKPyinY1gi.jpg","adult":false,"overview":"Young and disenchanted Sam meets a mysterious and beautiful woman who's swimming in his building's pool one night. When she suddenly vanishes the next morning, Sam embarks on a surreal quest across Los Angeles to decode the secret behind her disappearance, leading him into the murkiest depths of mystery, scandal and conspiracy.","release_date":"2018-06-21"},{"vote_count":0,"id":426563,"video":false,"vote_average":0,"title":"Holmes and Watson","popularity":20.978,"poster_path":"\/3O2LkmY9Mswux2MjJx7ARloF7ex.jpg","original_language":"en","original_title":"Holmes and Watson","genre_ids":[9648,12,35,80],"backdrop_path":"\/pikYQjSIHP96Zidprp9ngG8YmYJ.jpg","adult":false,"overview":"Detective Sherlock Holmes and Dr. John Watson join forces to investigate a murder at Buckingham Palace. They soon learn that they have only four days to solve the case, or the queen will become the next victim.","release_date":"2018-12-25"},{"vote_count":0,"id":429197,"video":false,"vote_average":0,"title":"Vice","popularity":20.319,"poster_path":"\/e0NZxqQ4B8YZ6kRrZish2DPqtdi.jpg","original_language":"en","original_title":"Vice","genre_ids":[18,36,35],"backdrop_path":"\/uvy89JLcYEiUb0VOoSjkUrIW3nJ.jpg","adult":false,"overview":"George W. Bush picks Dick Cheney, the CEO of Halliburton Co., to be his Republican running mate in the 2000 presidential election. No stranger to politics, Cheney's impressive résumé includes stints as White House chief of staff, House Minority Whip and defense secretary. When Bush wins by a narrow margin, Cheney begins to use his newfound power to help reshape the country and the world.","release_date":"2018-12-25"},{"vote_count":11,"id":504172,"video":false,"vote_average":6.6,"title":"The Mule","popularity":19.157,"poster_path":"\/t0idiLMalKMj2pLsvqHrOM4LPdQ.jpg","original_language":"en","original_title":"The Mule","genre_ids":[80,18,53],"backdrop_path":"\/rQiFIneBiShab7siVvufRPev9oQ.jpg","adult":false,"overview":"A 90-year-old horticulturalist and Korean War veteran is caught transporting $3 million worth of cocaine through Illinois for a Mexican drug cartel.","release_date":"2018-12-14"},{"vote_count":0,"id":166428,"video":false,"vote_average":0,"title":"How to Train Your Dragon: The Hidden World","popularity":18.301,"poster_path":"\/ZPZdFP2qo0cvfNTrUUNRXTW9AB.jpg","original_language":"en","original_title":"How to Train Your Dragon: The Hidden World","genre_ids":[16,10751,12],"backdrop_path":"\/lqROGEZ7NvUX08dAzUSJQcy8m74.jpg","adult":false,"overview":"As Hiccup fulfills his dream of creating a peaceful dragon utopia, Toothless’ discovery of an untamed, elusive mate draws the Night Fury away.  When danger mounts at home and Hiccup’s reign as village chief is tested, both dragon and rider must make impossible decisions to save their kind.","release_date":"2019-01-03"}],"page":1,"total_results":210,"dates":{"maximum":"2019-01-13","minimum":"2018-12-29"},"total_pages":11}